%YAML 1.1
%TAG !u! tag:unity3d.com,2011:
--- !u!114 &11400000
MonoBehaviour:
  m_ObjectHideFlags: 0
  m_PrefabParentObject: {fileID: 0}
  m_PrefabInternal: {fileID: 0}
  m_GameObject: {fileID: 0}
  m_Enabled: 1
  m_EditorHideFlags: 0
  m_Script: {fileID: 11500000, guid: 6986cd59941ae94418f1de1b31dd6a73, type: 3}
  m_Name: RocketLauncher
  m_EditorClassIdentifier: 
  m_ID: 2057493328
  m_ConsumableItem:
    m_ItemType: {fileID: 11400000, guid: 9b5902d5ab6b2174f9659f63bc9af8a4, type: 2}
    m_Capacity: 4
  m_AdditionalConsumableItems: []
  m_DualWieldItems: []
